{
  "_format": "hh-sol-artifact-1",
  "contractName": "Context",
  "sourceName": "contracts/eth_rune.sol",
  "abi": [
    {
      "inputs": [],
      "stateMutability": "nonpayable",
      "type": "constructor"
    }
  ],
  "bytecode": "0x6080604052348015600f57600080fd5b50603f80601d6000396000f3fe6080604052600080fdfea2646970667358221220bd99c810ee5e6baa78d843ac2229c96422318f845ff4506cd385efbf7af2949164736f6c63430007060033",
  "deployedBytecode": "0x6080604052600080fdfea2646970667358221220bd99c810ee5e6baa78d843ac2229c96422318f845ff4506cd385efbf7af2949164736f6c63430007060033",
  "linkReferences": {},
  "deployedLinkReferences": {}
}
